@startuml container

!define containerBackgroundColor background
!define containerBorderColor backgroundLight
!define containerFontColor text
!define containerFontSize 12
!define containerFontStyle normal

!define containerHeaderBackgroundColor backgroundLight
!define containerHeaderFontColor textLight
!define containerHeaderFontSize 12
!define containerHeaderFontStyle bold

@enduml
