@startuml entity

!include _ecb.plantuml
!include _stereotype.plantuml

skinparam Entity {
    BackgroundColor ecbBackgroundColor
    BorderColor red
    FontColor ecbFontColor
    FontSize ecbFontSize
    FontStyle ecbFontStyle

    Stereotype {
        FontColor stereotypeFontColor
        FontSize stereotypeFontSize
        FontStyle stereotypeFontStyle
    }
}

@enduml
